<svg width="24" height="24" viewBox="0 0 24 24" fill="none" xmlns="http://www.w3.org/2000/svg">
<path d="M12 12C12.9172 12 13.8139 11.728 14.5765 11.2184C15.3392 10.7088 15.9336 9.98448 16.2846 9.13706C16.6357 8.28963 16.7275 7.35715 16.5486 6.45753C16.3696 5.5579 15.9279 4.73155 15.2793 4.08296C14.6307 3.43437 13.8044 2.99267 12.9048 2.81372C12.0051 2.63478 11.0726 2.72662 10.2252 3.07763C9.3778 3.42865 8.65349 4.02307 8.14389 4.78573C7.6343 5.5484 7.3623 6.44505 7.3623 7.36229C7.3623 8.59228 7.85092 9.77189 8.72065 10.6416C9.59038 11.5114 10.77 12 12 12ZM12 5.50722C12.3669 5.50722 12.7255 5.61602 13.0306 5.81986C13.3357 6.02369 13.5734 6.31342 13.7139 6.65239C13.8543 6.99136 13.891 7.36435 13.8194 7.7242C13.7478 8.08405 13.5712 8.41459 13.3117 8.67403C13.0523 8.93346 12.7217 9.11014 12.3619 9.18172C12.002 9.2533 11.6291 9.21656 11.2901 9.07616C10.9511 8.93575 10.6614 8.69798 10.4575 8.39292C10.2537 8.08785 10.1449 7.72919 10.1449 7.36229C10.1455 6.87047 10.3411 6.39894 10.6889 6.05117C11.0366 5.70339 11.5082 5.50777 12 5.50722Z" fill="white"/>
<path d="M13.6962 15.7555C14.731 15.5578 15.721 15.173 16.6177 14.6199C16.7629 14.5298 16.889 14.412 16.9885 14.2731C17.0881 14.1341 17.1593 13.977 17.198 13.8105C17.2367 13.644 17.2421 13.4715 17.214 13.303C17.1859 13.1344 17.1248 12.973 17.0342 12.8281C16.9436 12.6832 16.8253 12.5576 16.686 12.4585C16.5468 12.3594 16.3893 12.2888 16.2227 12.2507C16.0561 12.2126 15.8836 12.2078 15.7151 12.2365C15.5467 12.2652 15.3855 12.3268 15.2409 12.418C14.2811 13.0029 13.181 13.3173 12.0571 13.3277C10.9331 13.3382 9.82732 13.0443 8.85685 12.4773C8.5616 12.3027 8.20924 12.2519 7.87669 12.3361C7.54414 12.4203 7.2584 12.6326 7.08184 12.9268C6.90529 13.2209 6.85226 13.5729 6.93433 13.906C7.01639 14.2391 7.22689 14.5262 7.51988 14.7046C8.38017 15.2128 9.3218 15.5685 10.3032 15.756L7.37133 18.6879C7.25039 18.8084 7.1544 18.9516 7.08887 19.1093C7.02334 19.2669 6.98954 19.436 6.98941 19.6067C6.98929 19.7775 7.02284 19.9466 7.08814 20.1044C7.15345 20.2621 7.24923 20.4055 7.36999 20.5262C7.49076 20.6469 7.63415 20.7426 7.79195 20.8078C7.94975 20.873 8.11886 20.9065 8.28961 20.9063C8.46036 20.9061 8.62939 20.8722 8.78703 20.8066C8.94467 20.741 9.08782 20.6449 9.20829 20.5239L12 17.7323L14.7916 20.5239C14.9121 20.6449 15.0552 20.741 15.2129 20.8066C15.3705 20.8722 15.5396 20.9061 15.7103 20.9063C15.8811 20.9065 16.0502 20.873 16.208 20.8078C16.3658 20.7426 16.5092 20.6469 16.6299 20.5262C16.7507 20.4055 16.8465 20.2621 16.9118 20.1044C16.9771 19.9466 17.0106 19.7775 17.0105 19.6068C17.0104 19.436 16.9766 19.267 16.911 19.1093C16.8455 18.9516 16.7495 18.8084 16.6286 18.6879L13.6962 15.7555Z" fill="white"/>
</svg>
